<svg width="25" height="24" viewBox="0 0 25 24" fill="none" xmlns="http://www.w3.org/2000/svg">
  <path d="M5.26519 21H4.36519C3.76519 21 3.31519 20.55 3.31519 19.95V4.05C3.31519 3.45 3.76519 3 4.36519 3H5.11519C5.86519 3 6.31519 3.45 6.31519 4.05V19.8C6.31519 20.55 5.86519 21 5.26519 21Z" fill="#21BA45" fill-opacity="0.8"/>
</svg>
