<svg width="25" height="24" viewBox="0 0 25 24" fill="none" xmlns="http://www.w3.org/2000/svg">
  <g clip-path="url(#clip0_432_3411)">
    <path d="M12.3152 24C15.4978 24 18.55 22.7357 20.8005 20.4853C23.0509 18.2348 24.3152 15.1826 24.3152 12C24.3152 8.8174 23.0509 5.76516 20.8005 3.51472C18.55 1.26428 15.4978 0 12.3152 0C9.13259 0 6.08034 1.26428 3.8299 3.51472C1.57947 5.76516 0.315186 8.8174 0.315186 12C0.315186 15.1826 1.57947 18.2348 3.8299 20.4853C6.08034 22.7357 9.13259 24 12.3152 24ZM10.8152 9V15C10.8152 15.8297 10.1449 16.5 9.31519 16.5C8.4855 16.5 7.81519 15.8297 7.81519 15V9C7.81519 8.17031 8.4855 7.5 9.31519 7.5C10.1449 7.5 10.8152 8.17031 10.8152 9ZM16.8152 9V15C16.8152 15.8297 16.1449 16.5 15.3152 16.5C14.4855 16.5 13.8152 15.8297 13.8152 15V9C13.8152 8.17031 14.4855 7.5 15.3152 7.5C16.1449 7.5 16.8152 8.17031 16.8152 9Z" fill="#949494"/>
  </g>
  <defs>
    <clipPath id="clip0_432_3411">
      <rect width="24" height="24" fill="white" transform="translate(0.315186)"/>
    </clipPath>
  </defs>
</svg>
