<svg width="25" height="24" viewBox="0 0 25 24" fill="none" xmlns="http://www.w3.org/2000/svg">
  <g clip-path="url(#clip0_432_3478)">
    <path d="M12.3152 24C15.4978 24 18.55 22.7357 20.8005 20.4853C23.0509 18.2348 24.3152 15.1826 24.3152 12C24.3152 8.8174 23.0509 5.76516 20.8005 3.51472C18.55 1.26428 15.4978 0 12.3152 0C9.13259 0 6.08034 1.26428 3.8299 3.51472C1.57947 5.76516 0.315186 8.8174 0.315186 12C0.315186 15.1826 1.57947 18.2348 3.8299 20.4853C6.08034 22.7357 9.13259 24 12.3152 24ZM12.3152 6C12.9386 6 13.4402 6.50156 13.4402 7.125V12.375C13.4402 12.9984 12.9386 13.5 12.3152 13.5C11.6917 13.5 11.1902 12.9984 11.1902 12.375V7.125C11.1902 6.50156 11.6917 6 12.3152 6ZM10.8152 16.5C10.8152 16.1022 10.9732 15.7206 11.2545 15.4393C11.5358 15.158 11.9174 15 12.3152 15C12.713 15 13.0945 15.158 13.3758 15.4393C13.6572 15.7206 13.8152 16.1022 13.8152 16.5C13.8152 16.8978 13.6572 17.2794 13.3758 17.5607C13.0945 17.842 12.713 18 12.3152 18C11.9174 18 11.5358 17.842 11.2545 17.5607C10.9732 17.2794 10.8152 16.8978 10.8152 16.5Z" fill="#37DED6"/>
  </g>
  <defs>
    <clipPath id="clip0_432_3478">
      <rect width="24" height="24" fill="white" transform="translate(0.315186)"/>
    </clipPath>
  </defs>
</svg>
